EDA on Google Play Store Reviews
…
[1] 0.07530937

cor(df$Sentiment_Polarity, df$Sentiment_Subjectivity)

[1] 0.2442618

Group Analysis

df %>%
  group_by(Category) %>%
  summarise(avg_rating = mean(Rating),
            total_apps = n())

# A tibble: 33 × 3
   Category            avg_rating total_apps
   <chr>                    <dbl>      <int>
 1 ART_AND_DESIGN            4.33        354
 2 AUTO_AND_VEHICLES         4.58        283
 3 BEAUTY                    4.26        317
 4 BOOKS_AND_REFERENCE       4.35        711
 5 BUSINESS                  4.25        803
 6 COMICS                    4.26         82
 7 COMMUNICATION             4.25       1288
 8 DATING                    4.10       1487
 9 EDUCATION                 4.26        737
10 ENTERTAINMENT             4.08        867
# ℹ 23 more rows
…
